[
{
    "model": "main.tag",
    "pk": 1,
    "fields": {
        "nome": "Acesso",
        "slug": "acesso"
    }
},
{
    "model": "main.tag",
    "pk": 2,
    "fields": {
        "nome": "Privacidade",
        "slug": "priv"
    }
},
{
    "model": "main.tag",
    "pk": 3,
    "fields": {
        "nome": "Liberdade de express\u00e3o",
        "slug": "libex"
    }
},
{
    "model": "main.tag",
    "pk": 4,
    "fields": {
        "nome": "G\u00eanero",
        "slug": "genero"
    }
},
{
    "model": "main.tag",
    "pk": 5,
    "fields": {
        "nome": "Inova\u00e7\u00e3o",
        "slug": "inov"
    }
}
]
