<?xml version="1.0" encoding="UTF-8"?>
<svg width="19px" height="22px" viewBox="0 0 19 22" version="1.1" xmlns="http://www.w3.org/2000/svg" xmlns:xlink="http://www.w3.org/1999/xlink">
    <!-- Generator: Sketch 44.1 (41455) - http://www.bohemiancoding.com/sketch -->
    <title>transgender</title>
    <desc>Created with Sketch.</desc>
    <defs></defs>
    <g id="Symbols" stroke="none" stroke-width="1" fill="none" fill-rule="evenodd">
        <g id="transgender" fill-rule="nonzero" fill="#000000">
            <g id="Shape">
                <path d="M17.8996349,0 L14.6400744,4.42218174e-05 C14.2984279,4.42218174e-05 14.0214698,0.277226574 14.0214698,0.619149666 C14.0214698,0.961072759 14.2984721,1.23825511 14.6400744,1.23825511 L16.848714,1.23821089 L13.3431256,4.74672566 C12.2623349,3.87268144 10.926414,3.39747379 9.51732093,3.39747379 C8.09563488,3.39747379 6.74826977,3.88095092 5.66244186,4.77003056 L4.86377907,3.97072121 L6.12078372,2.71269895 C6.36239302,2.47093827 6.36239302,2.07895608 6.12078372,1.83715118 C5.8792186,1.59534629 5.4875093,1.59534629 5.24594419,1.83715118 L3.98893953,3.09517345 L2.13347907,1.23821089 L4.34216279,1.23825511 C4.68376512,1.23825511 4.96076744,0.961072759 4.96076744,0.619193888 C4.96076744,0.277270795 4.6838093,8.84436349e-05 4.34216279,8.84436349e-05 L1.0826907,0 C0.497490698,0 0.0214302326,0.476445861 0.0214302326,1.06207539 L0.0214744186,4.32431886 C0.0214744186,4.66624196 0.298476744,4.94342431 0.64007907,4.94342431 C0.981725581,4.94342431 1.25868372,4.66624196 1.25868372,4.32431886 L1.25863953,2.11380287 L3.1141,3.97072121 L1.85705116,5.22878769 C1.61544186,5.47054837 1.61544186,5.86253056 1.85705116,6.10433546 C1.97781163,6.22523791 2.13613023,6.28568913 2.29444884,6.28568913 C2.45276744,6.28568913 2.61108605,6.22523791 2.73184651,6.10433546 L3.98889535,4.84626897 L4.78773488,5.64575521 C2.8335186,8.04178172 2.97186512,11.5881946 5.20308372,13.8212195 C6.20836047,14.8273101 7.50270233,15.438942 8.89867209,15.5787272 L8.89867209,18.2607804 L7.33404419,18.2607804 C6.99239767,18.2607804 6.71543953,18.5379628 6.71543953,18.8798859 C6.71543953,19.2218089 6.99239767,19.4989913 7.33404419,19.4989913 L8.89867209,19.4989913 L8.89867209,20.9434527 C8.89867209,21.2853758 9.17563023,21.5625582 9.51727674,21.5625582 C9.85892326,21.5625582 10.1358814,21.2853758 10.1358814,20.9434527 L10.1358814,19.4989913 L11.7004651,19.4989913 C12.0421116,19.4989913 12.3190698,19.2218089 12.3190698,18.8798859 C12.3190698,18.5379628 12.0421116,18.2607804 11.7004651,18.2607804 L10.1358814,18.2607804 L10.1358814,15.5787272 C11.531807,15.438942 12.8261488,14.8273101 13.8314256,13.8212195 C14.9837977,12.6679145 15.6183977,11.1345672 15.6183977,9.5035339 C15.6183977,8.06813793 15.1266512,6.70853815 14.2232674,5.61692259 L17.7235977,2.11367021 L17.7235535,4.32423042 C17.7235535,4.66615351 18.0005116,4.94338009 18.3421581,4.94338009 C18.6838047,4.94338009 18.9607628,4.66619773 18.9607628,4.32427464 L18.9608512,1.06207539 C18.9608953,0.476445861 18.4848349,0 17.8996349,0 Z M12.9566302,12.9456717 C12.0379581,13.8650875 10.8164791,14.3714273 9.51727674,14.3714273 C8.2181186,14.3714273 6.99663953,13.8650875 6.07796744,12.9456717 C4.18154651,11.0476713 4.18154651,7.9594407 6.07796744,6.06148452 C6.99663953,5.14206871 8.2181186,4.6357289 9.51732093,4.6357289 C10.8164791,4.6357289 12.0379581,5.14206871 12.9566302,6.06148452 C13.8753023,6.98090032 14.3812326,8.20332402 14.3812326,9.5035339 C14.3812326,10.8037438 13.8753023,12.0262117 12.9566302,12.9456717 Z"></path>
            </g>
        </g>
    </g>
</svg>